You are now connected to database "tpch" as user "tomas".
SET
                                                                                                             QUERY PLAN                                                                                                             
------------------------------------------------------------------------------------------------------------------------------------------------------------------------------------------------------------------------------------
 Limit  (cost=51803246.18..51803246.43 rows=100 width=71) (actual time=854025.566..854031.281 rows=100 loops=1)
   ->  Sort  (cost=51803246.18..51807527.07 rows=1712356 width=71) (actual time=854025.564..854025.569 rows=100 loops=1)
         Sort Key: orders.o_totalprice DESC, orders.o_orderdate
         Sort Method: top-N heapsort  Memory: 38kB
         ->  Finalize GroupAggregate  (cost=51521366.68..51737801.16 rows=1712356 width=71) (actual time=854023.015..854024.997 rows=901 loops=1)
               Group Key: customer.c_custkey, orders.o_orderkey
               ->  Gather Merge  (cost=51521366.68..51702127.07 rows=1426964 width=71) (actual time=854022.980..854029.746 rows=1018 loops=1)
                     Workers Planned: 2
                     Workers Launched: 2
                     ->  Partial GroupAggregate  (cost=51520366.65..51536420.00 rows=713482 width=71) (actual time=853591.043..853591.739 rows=339 loops=3)
                           Group Key: customer.c_custkey, orders.o_orderkey
                           ->  Sort  (cost=51520366.65..51522150.36 rows=713482 width=44) (actual time=853591.009..853591.099 rows=2102 loops=3)
                                 Sort Key: customer.c_custkey, orders.o_orderkey
                                 Sort Method: quicksort  Memory: 260kB
                                 ->  Hash Join  (cost=34192244.08..51429051.59 rows=713482 width=44) (actual time=822388.772..853584.432 rows=2102 loops=3)
                                       Hash Cond: (orders.o_custkey = customer.c_custkey)
                                       ->  Hash Join  (cost=33408581.08..50545868.70 rows=713482 width=25) (actual time=459928.987..824631.433 rows=2102 loops=3)
                                             Hash Cond: (lineitem.l_orderkey = orders.o_orderkey)
                                             ->  Parallel Seq Scan on lineitem  (cost=0.00..13748727.40 rows=250000640 width=9) (actual time=0.056..294927.369 rows=200012634 loops=3)
                                             ->  Hash  (cost=33400720.98..33400720.98 rows=428088 width=24) (actual time=455381.240..455381.240 rows=901 loops=3)
                                                   Buckets: 65536  Batches: 8  Memory Usage: 519kB
                                                   ->  Nested Loop  (cost=1.15..33400720.98 rows=428088 width=24) (actual time=1002.561..455372.227 rows=901 loops=3)
                                                         ->  GroupAggregate  (cost=0.57..29835082.39 rows=428088 width=4) (actual time=976.579..424411.350 rows=901 loops=3)
                                                               Group Key: lineitem_1.l_orderkey
                                                               Filter: (sum(lineitem_1.l_quantity) > '313'::numeric)
                                                               Rows Removed by Filter: 149999099
                                                               ->  Index Scan using l_orderkey_index on lineitem lineitem_1  (cost=0.57..26829723.61 rows=600001536 width=9) (actual time=0.021..246322.612 rows=600037902 loops=3)
                                                         ->  Index Scan using orders_pkey on orders  (cost=0.57..8.32 rows=1 width=20) (actual time=34.354..34.354 rows=1 loops=2703)
                                                               Index Cond: (o_orderkey = lineitem_1.l_orderkey)
                                       ->  Hash  (cost=508272.00..508272.00 rows=15000000 width=23) (actual time=16813.353..16813.353 rows=15000000 loops=3)
                                             Buckets: 65536  Batches: 256  Memory Usage: 3717kB
                                             ->  Seq Scan on customer  (cost=0.00..508272.00 rows=15000000 width=23) (actual time=0.022..13579.607 rows=15000000 loops=3)
 Planning time: 438.790 ms
 Execution time: 854040.812 ms
(34 rows)



You are now connected to database "tpch" as user "tomas".
SET
                                                                                                             QUERY PLAN                                                                                                             
------------------------------------------------------------------------------------------------------------------------------------------------------------------------------------------------------------------------------------
 Limit  (cost=51803246.18..51803246.43 rows=100 width=71) (actual time=847001.116..847006.633 rows=100 loops=1)
   ->  Sort  (cost=51803246.18..51807527.07 rows=1712356 width=71) (actual time=847001.114..847001.119 rows=100 loops=1)
         Sort Key: orders.o_totalprice DESC, orders.o_orderdate
         Sort Method: top-N heapsort  Memory: 38kB
         ->  Finalize GroupAggregate  (cost=51521366.68..51737801.16 rows=1712356 width=71) (actual time=846998.404..847000.501 rows=901 loops=1)
               Group Key: customer.c_custkey, orders.o_orderkey
               ->  Gather Merge  (cost=51521366.68..51702127.07 rows=1426964 width=71) (actual time=846998.364..847005.011 rows=1020 loops=1)
                     Workers Planned: 2
                     Workers Launched: 2
                     ->  Partial GroupAggregate  (cost=51520366.65..51536420.00 rows=713482 width=71) (actual time=845686.851..845687.600 rows=340 loops=3)
                           Group Key: customer.c_custkey, orders.o_orderkey
                           ->  Sort  (cost=51520366.65..51522150.36 rows=713482 width=44) (actual time=845686.814..845686.928 rows=2102 loops=3)
                                 Sort Key: customer.c_custkey, orders.o_orderkey
                                 Sort Method: quicksort  Memory: 203kB
                                 ->  Hash Join  (cost=34192244.08..51429051.59 rows=713482 width=44) (actual time=815345.374..845680.505 rows=2102 loops=3)
                                       Hash Cond: (orders.o_custkey = customer.c_custkey)
                                       ->  Hash Join  (cost=33408581.08..50545868.70 rows=713482 width=25) (actual time=450769.447..818429.451 rows=2102 loops=3)
                                             Hash Cond: (lineitem.l_orderkey = orders.o_orderkey)
                                             ->  Parallel Seq Scan on lineitem  (cost=0.00..13748727.40 rows=250000640 width=9) (actual time=0.013..291490.825 rows=200012634 loops=3)
                                             ->  Hash  (cost=33400720.98..33400720.98 rows=428088 width=24) (actual time=448521.619..448521.619 rows=901 loops=3)
                                                   Buckets: 65536  Batches: 8  Memory Usage: 519kB
                                                   ->  Nested Loop  (cost=1.15..33400720.98 rows=428088 width=24) (actual time=950.764..448512.944 rows=901 loops=3)
                                                         ->  GroupAggregate  (cost=0.57..29835082.39 rows=428088 width=4) (actual time=926.542..419921.008 rows=901 loops=3)
                                                               Group Key: lineitem_1.l_orderkey
                                                               Filter: (sum(lineitem_1.l_quantity) > '313'::numeric)
                                                               Rows Removed by Filter: 149999099
                                                               ->  Index Scan using l_orderkey_index on lineitem lineitem_1  (cost=0.57..26829723.61 rows=600001536 width=9) (actual time=0.028..247072.330 rows=600037902 loops=3)
                                                         ->  Index Scan using orders_pkey on orders  (cost=0.57..8.32 rows=1 width=20) (actual time=31.725..31.725 rows=1 loops=2703)
                                                               Index Cond: (o_orderkey = lineitem_1.l_orderkey)
                                       ->  Hash  (cost=508272.00..508272.00 rows=15000000 width=23) (actual time=16069.692..16069.692 rows=15000000 loops=3)
                                             Buckets: 65536  Batches: 256  Memory Usage: 3717kB
                                             ->  Seq Scan on customer  (cost=0.00..508272.00 rows=15000000 width=23) (actual time=0.035..12488.502 rows=15000000 loops=3)
 Planning time: 470.562 ms
 Execution time: 847015.619 ms
(34 rows)



You are now connected to database "tpch" as user "tomas".
SET
                                                                                                             QUERY PLAN                                                                                                             
------------------------------------------------------------------------------------------------------------------------------------------------------------------------------------------------------------------------------------
 Limit  (cost=51803246.18..51803246.43 rows=100 width=71) (actual time=852552.942..852558.384 rows=100 loops=1)
   ->  Sort  (cost=51803246.18..51807527.07 rows=1712356 width=71) (actual time=852552.933..852552.939 rows=100 loops=1)
         Sort Key: orders.o_totalprice DESC, orders.o_orderdate
         Sort Method: top-N heapsort  Memory: 38kB
         ->  Finalize GroupAggregate  (cost=51521366.68..51737801.16 rows=1712356 width=71) (actual time=852548.482..852552.010 rows=901 loops=1)
               Group Key: customer.c_custkey, orders.o_orderkey
               ->  Gather Merge  (cost=51521366.68..51702127.07 rows=1426964 width=71) (actual time=852548.402..852555.698 rows=1015 loops=1)
                     Workers Planned: 2
                     Workers Launched: 2
                     ->  Partial GroupAggregate  (cost=51520366.65..51536420.00 rows=713482 width=71) (actual time=851576.277..851577.486 rows=338 loops=3)
                           Group Key: customer.c_custkey, orders.o_orderkey
                           ->  Sort  (cost=51520366.65..51522150.36 rows=713482 width=44) (actual time=851576.250..851576.412 rows=2102 loops=3)
                                 Sort Key: customer.c_custkey, orders.o_orderkey
                                 Sort Method: quicksort  Memory: 201kB
                                 ->  Hash Join  (cost=34192244.08..51429051.59 rows=713482 width=44) (actual time=815112.928..851570.577 rows=2102 loops=3)
                                       Hash Cond: (orders.o_custkey = customer.c_custkey)
                                       ->  Hash Join  (cost=33408581.08..50545868.70 rows=713482 width=25) (actual time=451679.680..824201.991 rows=2102 loops=3)
                                             Hash Cond: (lineitem.l_orderkey = orders.o_orderkey)
                                             ->  Parallel Seq Scan on lineitem  (cost=0.00..13748727.40 rows=250000640 width=9) (actual time=0.025..294589.830 rows=200012634 loops=3)
                                             ->  Hash  (cost=33400720.98..33400720.98 rows=428088 width=24) (actual time=449264.816..449264.816 rows=901 loops=3)
                                                   Buckets: 65536  Batches: 8  Memory Usage: 519kB
                                                   ->  Nested Loop  (cost=1.15..33400720.98 rows=428088 width=24) (actual time=1011.979..449256.233 rows=901 loops=3)
                                                         ->  GroupAggregate  (cost=0.57..29835082.39 rows=428088 width=4) (actual time=985.016..415071.707 rows=901 loops=3)
                                                               Group Key: lineitem_1.l_orderkey
                                                               Filter: (sum(lineitem_1.l_quantity) > '313'::numeric)
                                                               Rows Removed by Filter: 149999099
                                                               ->  Index Scan using l_orderkey_index on lineitem lineitem_1  (cost=0.57..26829723.61 rows=600001536 width=9) (actual time=0.020..242321.573 rows=600037902 loops=3)
                                                         ->  Index Scan using orders_pkey on orders  (cost=0.57..8.32 rows=1 width=20) (actual time=37.933..37.933 rows=1 loops=2703)
                                                               Index Cond: (o_orderkey = lineitem_1.l_orderkey)
                                       ->  Hash  (cost=508272.00..508272.00 rows=15000000 width=23) (actual time=16212.461..16212.462 rows=15000000 loops=3)
                                             Buckets: 65536  Batches: 256  Memory Usage: 3717kB
                                             ->  Seq Scan on customer  (cost=0.00..508272.00 rows=15000000 width=23) (actual time=0.022..12663.600 rows=15000000 loops=3)
 Planning time: 512.166 ms
 Execution time: 852573.662 ms
(34 rows)



You are now connected to database "tpch" as user "tomas".
SET
                                                                                                             QUERY PLAN                                                                                                             
------------------------------------------------------------------------------------------------------------------------------------------------------------------------------------------------------------------------------------
 Limit  (cost=51803246.18..51803246.43 rows=100 width=71) (actual time=852288.109..852293.945 rows=100 loops=1)
   ->  Sort  (cost=51803246.18..51807527.07 rows=1712356 width=71) (actual time=852288.108..852288.113 rows=100 loops=1)
         Sort Key: orders.o_totalprice DESC, orders.o_orderdate
         Sort Method: top-N heapsort  Memory: 38kB
         ->  Finalize GroupAggregate  (cost=51521366.68..51737801.16 rows=1712356 width=71) (actual time=852285.512..852287.518 rows=901 loops=1)
               Group Key: customer.c_custkey, orders.o_orderkey
               ->  Gather Merge  (cost=51521366.68..51702127.07 rows=1426964 width=71) (actual time=852285.455..852292.378 rows=1023 loops=1)
                     Workers Planned: 2
                     Workers Launched: 2
                     ->  Partial GroupAggregate  (cost=51520366.65..51536420.00 rows=713482 width=71) (actual time=851771.239..851771.965 rows=341 loops=3)
                           Group Key: customer.c_custkey, orders.o_orderkey
                           ->  Sort  (cost=51520366.65..51522150.36 rows=713482 width=44) (actual time=851771.207..851771.311 rows=2102 loops=3)
                                 Sort Key: customer.c_custkey, orders.o_orderkey
                                 Sort Method: quicksort  Memory: 260kB
                                 ->  Hash Join  (cost=34192244.08..51429051.59 rows=713482 width=44) (actual time=820587.921..851767.487 rows=2102 loops=3)
                                       Hash Cond: (orders.o_custkey = customer.c_custkey)
                                       ->  Hash Join  (cost=33408581.08..50545868.70 rows=713482 width=25) (actual time=454092.425..823358.447 rows=2102 loops=3)
                                             Hash Cond: (lineitem.l_orderkey = orders.o_orderkey)
                                             ->  Parallel Seq Scan on lineitem  (cost=0.00..13748727.40 rows=250000640 width=9) (actual time=0.024..297894.567 rows=200012634 loops=3)
                                             ->  Hash  (cost=33400720.98..33400720.98 rows=428088 width=24) (actual time=451841.826..451841.826 rows=901 loops=3)
                                                   Buckets: 65536  Batches: 8  Memory Usage: 519kB
                                                   ->  Nested Loop  (cost=1.15..33400720.98 rows=428088 width=24) (actual time=1636.190..451832.507 rows=901 loops=3)
                                                         ->  GroupAggregate  (cost=0.57..29835082.39 rows=428088 width=4) (actual time=1608.693..422633.255 rows=901 loops=3)
                                                               Group Key: lineitem_1.l_orderkey
                                                               Filter: (sum(lineitem_1.l_quantity) > '313'::numeric)
                                                               Rows Removed by Filter: 149999099
                                                               ->  Index Scan using l_orderkey_index on lineitem lineitem_1  (cost=0.57..26829723.61 rows=600001536 width=9) (actual time=0.021..250475.280 rows=600037902 loops=3)
                                                         ->  Index Scan using orders_pkey on orders  (cost=0.57..8.32 rows=1 width=20) (actual time=32.399..32.399 rows=1 loops=2703)
                                                               Index Cond: (o_orderkey = lineitem_1.l_orderkey)
                                       ->  Hash  (cost=508272.00..508272.00 rows=15000000 width=23) (actual time=16677.817..16677.817 rows=15000000 loops=3)
                                             Buckets: 65536  Batches: 256  Memory Usage: 3717kB
                                             ->  Seq Scan on customer  (cost=0.00..508272.00 rows=15000000 width=23) (actual time=0.021..13502.508 rows=15000000 loops=3)
 Planning time: 545.574 ms
 Execution time: 852302.120 ms
(34 rows)



You are now connected to database "tpch" as user "tomas".
SET
                                                                                                             QUERY PLAN                                                                                                             
------------------------------------------------------------------------------------------------------------------------------------------------------------------------------------------------------------------------------------
 Limit  (cost=51803246.18..51803246.43 rows=100 width=71) (actual time=858590.890..858595.946 rows=100 loops=1)
   ->  Sort  (cost=51803246.18..51807527.07 rows=1712356 width=71) (actual time=858590.888..858590.893 rows=100 loops=1)
         Sort Key: orders.o_totalprice DESC, orders.o_orderdate
         Sort Method: top-N heapsort  Memory: 38kB
         ->  Finalize GroupAggregate  (cost=51521366.68..51737801.16 rows=1712356 width=71) (actual time=858588.330..858590.293 rows=901 loops=1)
               Group Key: customer.c_custkey, orders.o_orderkey
               ->  Gather Merge  (cost=51521366.68..51702127.07 rows=1426964 width=71) (actual time=858588.271..858594.331 rows=1021 loops=1)
                     Workers Planned: 2
                     Workers Launched: 2
                     ->  Partial GroupAggregate  (cost=51520366.65..51536420.00 rows=713482 width=71) (actual time=856810.016..856810.758 rows=340 loops=3)
                           Group Key: customer.c_custkey, orders.o_orderkey
                           ->  Sort  (cost=51520366.65..51522150.36 rows=713482 width=44) (actual time=856809.982..856810.085 rows=2102 loops=3)
                                 Sort Key: customer.c_custkey, orders.o_orderkey
                                 Sort Method: quicksort  Memory: 195kB
                                 ->  Hash Join  (cost=34192244.08..51429051.59 rows=713482 width=44) (actual time=826177.552..856803.853 rows=2102 loops=3)
                                       Hash Cond: (orders.o_custkey = customer.c_custkey)
                                       ->  Hash Join  (cost=33408581.08..50545868.70 rows=713482 width=25) (actual time=464097.428..829034.787 rows=2102 loops=3)
                                             Hash Cond: (lineitem.l_orderkey = orders.o_orderkey)
                                             ->  Parallel Seq Scan on lineitem  (cost=0.00..13748727.40 rows=250000640 width=9) (actual time=0.053..295661.852 rows=200012634 loops=3)
                                             ->  Hash  (cost=33400720.98..33400720.98 rows=428088 width=24) (actual time=454374.409..454374.409 rows=901 loops=3)
                                                   Buckets: 65536  Batches: 8  Memory Usage: 519kB
                                                   ->  Nested Loop  (cost=1.15..33400720.98 rows=428088 width=24) (actual time=1056.948..454365.029 rows=901 loops=3)
                                                         ->  GroupAggregate  (cost=0.57..29835082.39 rows=428088 width=4) (actual time=1017.665..420457.649 rows=901 loops=3)
                                                               Group Key: lineitem_1.l_orderkey
                                                               Filter: (sum(lineitem_1.l_quantity) > '313'::numeric)
                                                               Rows Removed by Filter: 149999099
                                                               ->  Index Scan using l_orderkey_index on lineitem lineitem_1  (cost=0.57..26829723.61 rows=600001536 width=9) (actual time=0.019..246612.350 rows=600037902 loops=3)
                                                         ->  Index Scan using orders_pkey on orders  (cost=0.57..8.32 rows=1 width=20) (actual time=37.624..37.624 rows=1 loops=2703)
                                                               Index Cond: (o_orderkey = lineitem_1.l_orderkey)
                                       ->  Hash  (cost=508272.00..508272.00 rows=15000000 width=23) (actual time=17056.079..17056.079 rows=15000000 loops=3)
                                             Buckets: 65536  Batches: 256  Memory Usage: 3717kB
                                             ->  Seq Scan on customer  (cost=0.00..508272.00 rows=15000000 width=23) (actual time=0.020..13598.010 rows=15000000 loops=3)
 Planning time: 478.893 ms
 Execution time: 858605.450 ms
(34 rows)



