You are now connected to database "tpch" as user "tomas".
                                                                                                        QUERY PLAN                                                                                                         
---------------------------------------------------------------------------------------------------------------------------------------------------------------------------------------------------------------------------
 Finalize Aggregate  (cost=16898531.78..16898531.79 rows=1 width=32) (actual time=250593.294..250593.294 rows=1 loops=1)
   ->  Gather  (cost=16898531.56..16898531.77 rows=2 width=32) (actual time=250593.195..250594.976 rows=3 loops=1)
         Workers Planned: 2
         Workers Launched: 2
         ->  Partial Aggregate  (cost=16897531.56..16897531.57 rows=1 width=32) (actual time=250587.674..250587.674 rows=1 loops=3)
               ->  Parallel Seq Scan on lineitem  (cost=0.00..16873735.40 rows=4759231 width=12) (actual time=7.107..248818.309 rows=3809217 loops=3)
                     Filter: ((l_shipdate >= '1992-04-30'::date) AND (l_shipdate < '1993-04-30 00:00:00'::timestamp without time zone) AND (l_discount >= 0.07) AND (l_discount <= 0.09) AND (l_quantity < '24'::numeric))
                     Rows Removed by Filter: 196203417
 Planning time: 148.305 ms
 Execution time: 250602.810 ms
(10 rows)



You are now connected to database "tpch" as user "tomas".
                                                                                                        QUERY PLAN                                                                                                         
---------------------------------------------------------------------------------------------------------------------------------------------------------------------------------------------------------------------------
 Finalize Aggregate  (cost=16898531.78..16898531.79 rows=1 width=32) (actual time=250011.998..250011.998 rows=1 loops=1)
   ->  Gather  (cost=16898531.56..16898531.77 rows=2 width=32) (actual time=250011.806..250014.198 rows=3 loops=1)
         Workers Planned: 2
         Workers Launched: 2
         ->  Partial Aggregate  (cost=16897531.56..16897531.57 rows=1 width=32) (actual time=250000.809..250000.809 rows=1 loops=3)
               ->  Parallel Seq Scan on lineitem  (cost=0.00..16873735.40 rows=4759231 width=12) (actual time=7.546..248325.037 rows=3809217 loops=3)
                     Filter: ((l_shipdate >= '1992-04-30'::date) AND (l_shipdate < '1993-04-30 00:00:00'::timestamp without time zone) AND (l_discount >= 0.07) AND (l_discount <= 0.09) AND (l_quantity < '24'::numeric))
                     Rows Removed by Filter: 196203417
 Planning time: 98.307 ms
 Execution time: 250021.819 ms
(10 rows)



You are now connected to database "tpch" as user "tomas".
                                                                                                        QUERY PLAN                                                                                                         
---------------------------------------------------------------------------------------------------------------------------------------------------------------------------------------------------------------------------
 Finalize Aggregate  (cost=16898531.78..16898531.79 rows=1 width=32) (actual time=250098.773..250098.773 rows=1 loops=1)
   ->  Gather  (cost=16898531.56..16898531.77 rows=2 width=32) (actual time=250098.623..250100.329 rows=3 loops=1)
         Workers Planned: 2
         Workers Launched: 2
         ->  Partial Aggregate  (cost=16897531.56..16897531.57 rows=1 width=32) (actual time=250090.728..250090.728 rows=1 loops=3)
               ->  Parallel Seq Scan on lineitem  (cost=0.00..16873735.40 rows=4759231 width=12) (actual time=7.298..248331.688 rows=3809217 loops=3)
                     Filter: ((l_shipdate >= '1992-04-30'::date) AND (l_shipdate < '1993-04-30 00:00:00'::timestamp without time zone) AND (l_discount >= 0.07) AND (l_discount <= 0.09) AND (l_quantity < '24'::numeric))
                     Rows Removed by Filter: 196203417
 Planning time: 89.963 ms
 Execution time: 250108.341 ms
(10 rows)



You are now connected to database "tpch" as user "tomas".
                                                                                                        QUERY PLAN                                                                                                         
---------------------------------------------------------------------------------------------------------------------------------------------------------------------------------------------------------------------------
 Finalize Aggregate  (cost=16898531.78..16898531.79 rows=1 width=32) (actual time=250111.505..250111.506 rows=1 loops=1)
   ->  Gather  (cost=16898531.56..16898531.77 rows=2 width=32) (actual time=250111.360..250123.025 rows=3 loops=1)
         Workers Planned: 2
         Workers Launched: 2
         ->  Partial Aggregate  (cost=16897531.56..16897531.57 rows=1 width=32) (actual time=250099.401..250099.401 rows=1 loops=3)
               ->  Parallel Seq Scan on lineitem  (cost=0.00..16873735.40 rows=4759231 width=12) (actual time=11.174..248361.350 rows=3809217 loops=3)
                     Filter: ((l_shipdate >= '1992-04-30'::date) AND (l_shipdate < '1993-04-30 00:00:00'::timestamp without time zone) AND (l_discount >= 0.07) AND (l_discount <= 0.09) AND (l_quantity < '24'::numeric))
                     Rows Removed by Filter: 196203417
 Planning time: 111.639 ms
 Execution time: 250131.800 ms
(10 rows)



You are now connected to database "tpch" as user "tomas".
                                                                                                        QUERY PLAN                                                                                                         
---------------------------------------------------------------------------------------------------------------------------------------------------------------------------------------------------------------------------
 Finalize Aggregate  (cost=16898531.78..16898531.79 rows=1 width=32) (actual time=250530.106..250530.107 rows=1 loops=1)
   ->  Gather  (cost=16898531.56..16898531.77 rows=2 width=32) (actual time=250530.000..250531.679 rows=3 loops=1)
         Workers Planned: 2
         Workers Launched: 2
         ->  Partial Aggregate  (cost=16897531.56..16897531.57 rows=1 width=32) (actual time=250522.078..250522.078 rows=1 loops=3)
               ->  Parallel Seq Scan on lineitem  (cost=0.00..16873735.40 rows=4759231 width=12) (actual time=9.795..248794.746 rows=3809217 loops=3)
                     Filter: ((l_shipdate >= '1992-04-30'::date) AND (l_shipdate < '1993-04-30 00:00:00'::timestamp without time zone) AND (l_discount >= 0.07) AND (l_discount <= 0.09) AND (l_quantity < '24'::numeric))
                     Rows Removed by Filter: 196203417
 Planning time: 94.912 ms
 Execution time: 250546.847 ms
(10 rows)



