You are now connected to database "tpch" as user "tomas".
SET
                                                                                     QUERY PLAN                                                                                      
-------------------------------------------------------------------------------------------------------------------------------------------------------------------------------------
 Limit  (cost=2374513.30..2374513.31 rows=1 width=276) (actual time=9760.514..9760.692 rows=100 loops=1)
   ->  Sort  (cost=2374513.30..2374513.31 rows=1 width=276) (actual time=9760.512..9760.518 rows=100 loops=1)
         Sort Key: supplier.s_acctbal DESC, nation.n_name, supplier.s_name, part.p_partkey
         Sort Method: top-N heapsort  Memory: 71kB
         ->  Merge Join  (cost=932579.24..2374513.29 rows=1 width=276) (actual time=7849.277..9755.257 rows=4830 loops=1)
               Merge Cond: (part.p_partkey = partsupp.ps_partkey)
               Join Filter: (partsupp.ps_supplycost = (SubPlan 1))
               Rows Removed by Join Filter: 1690
               ->  Gather Merge  (cost=1000.45..87422.15 rows=8739 width=30) (actual time=24.736..38.931 rows=8148 loops=1)
                     Workers Planned: 2
                     Workers Launched: 2
                     ->  Parallel Index Scan using part_pkey on part  (cost=0.43..85413.43 rows=3641 width=30) (actual time=2.037..625.784 rows=2716 loops=3)
                           Filter: (((p_type)::text ~~ '%TIN'::text) AND (p_size = 38))
                           Rows Removed by Filter: 663951
               ->  Materialize  (cost=931578.59..939578.59 rows=1600000 width=250) (actual time=7800.210..8351.139 rows=1602789 loops=1)
                     ->  Sort  (cost=931578.59..935578.59 rows=1600000 width=250) (actual time=7800.201..8191.325 rows=1602789 loops=1)
                           Sort Key: partsupp.ps_partkey
                           Sort Method: external merge  Disk: 292720kB
                           ->  Hash Join  (cost=4708.46..383885.46 rows=1600000 width=250) (actual time=243.743..5963.156 rows=1603360 loops=1)
                                 Hash Cond: (partsupp.ps_suppkey = supplier.s_suppkey)
                                 ->  Seq Scan on partsupp  (cost=0.00..254386.00 rows=8000000 width=14) (actual time=0.011..3642.345 rows=8000000 loops=1)
                                 ->  Hash  (cost=3793.46..3793.46 rows=20000 width=244) (actual time=243.482..243.482 rows=20042 loops=1)
                                       Buckets: 16384  Batches: 2  Memory Usage: 2113kB
                                       ->  Hash Join  (cost=2.46..3793.46 rows=20000 width=244) (actual time=22.919..232.181 rows=20042 loops=1)
                                             Hash Cond: (supplier.s_nationkey = nation.n_nationkey)
                                             ->  Seq Scan on supplier  (cost=0.00..3216.00 rows=100000 width=144) (actual time=0.005..194.427 rows=100000 loops=1)
                                             ->  Hash  (cost=2.40..2.40 rows=5 width=108) (actual time=22.899..22.899 rows=5 loops=1)
                                                   Buckets: 1024  Batches: 1  Memory Usage: 9kB
                                                   ->  Hash Join  (cost=1.07..2.40 rows=5 width=108) (actual time=22.879..22.887 rows=5 loops=1)
                                                         Hash Cond: (nation.n_regionkey = region.r_regionkey)
                                                         ->  Seq Scan on nation  (cost=0.00..1.25 rows=25 width=112) (actual time=0.855..0.858 rows=25 loops=1)
                                                         ->  Hash  (cost=1.06..1.06 rows=1 width=4) (actual time=21.998..21.998 rows=1 loops=1)
                                                               Buckets: 1024  Batches: 1  Memory Usage: 9kB
                                                               ->  Seq Scan on region  (cost=0.00..1.06 rows=1 width=4) (actual time=21.987..21.988 rows=1 loops=1)
                                                                     Filter: (r_name = 'MIDDLE EAST'::bpchar)
                                                                     Rows Removed by Filter: 4
               SubPlan 1
                 ->  Aggregate  (cost=192.15..192.16 rows=1 width=32) (actual time=0.177..0.177 rows=1 loops=6520)
                       ->  Nested Loop  (cost=0.86..192.14 rows=4 width=6) (actual time=0.151..0.174 rows=2 loops=6520)
                             Join Filter: (nation_1.n_regionkey = region_1.r_regionkey)
                             Rows Removed by Join Filter: 2
                             ->  Seq Scan on region region_1  (cost=0.00..1.06 rows=1 width=4) (actual time=0.002..0.002 rows=1 loops=6520)
                                   Filter: (r_name = 'MIDDLE EAST'::bpchar)
                                   Rows Removed by Filter: 4
                             ->  Nested Loop  (cost=0.86..190.85 rows=18 width=10) (actual time=0.140..0.171 rows=4 loops=6520)
                                   ->  Nested Loop  (cost=0.72..188.08 rows=18 width=10) (actual time=0.139..0.166 rows=4 loops=6520)
                                         ->  Index Scan using partsupp_pkey on partsupp partsupp_1  (cost=0.43..38.50 rows=18 width=10) (actual time=0.134..0.143 rows=4 loops=6520)
                                               Index Cond: (part.p_partkey = ps_partkey)
                                         ->  Index Scan using supplier_pkey on supplier supplier_1  (cost=0.29..8.31 rows=1 width=8) (actual time=0.005..0.005 rows=1 loops=26080)
                                               Index Cond: (s_suppkey = partsupp_1.ps_suppkey)
                                   ->  Index Scan using nation_pkey on nation nation_1  (cost=0.14..0.16 rows=1 width=8) (actual time=0.001..0.001 rows=1 loops=26080)
                                         Index Cond: (n_nationkey = supplier_1.s_nationkey)
 Planning time: 203.553 ms
 Execution time: 9808.225 ms
(54 rows)



You are now connected to database "tpch" as user "tomas".
SET
                                                                                     QUERY PLAN                                                                                      
-------------------------------------------------------------------------------------------------------------------------------------------------------------------------------------
 Limit  (cost=2374513.30..2374513.31 rows=1 width=276) (actual time=8999.379..8999.564 rows=100 loops=1)
   ->  Sort  (cost=2374513.30..2374513.31 rows=1 width=276) (actual time=8999.377..8999.383 rows=100 loops=1)
         Sort Key: supplier.s_acctbal DESC, nation.n_name, supplier.s_name, part.p_partkey
         Sort Method: top-N heapsort  Memory: 71kB
         ->  Merge Join  (cost=932579.24..2374513.29 rows=1 width=276) (actual time=6786.441..8994.086 rows=4830 loops=1)
               Merge Cond: (part.p_partkey = partsupp.ps_partkey)
               Join Filter: (partsupp.ps_supplycost = (SubPlan 1))
               Rows Removed by Join Filter: 1690
               ->  Gather Merge  (cost=1000.45..87422.15 rows=8739 width=30) (actual time=23.882..50.186 rows=8148 loops=1)
                     Workers Planned: 2
                     Workers Launched: 2
                     ->  Parallel Index Scan using part_pkey on part  (cost=0.43..85413.43 rows=3641 width=30) (actual time=3.155..596.015 rows=2716 loops=3)
                           Filter: (((p_type)::text ~~ '%TIN'::text) AND (p_size = 38))
                           Rows Removed by Filter: 663951
               ->  Materialize  (cost=931578.59..939578.59 rows=1600000 width=250) (actual time=6738.555..7289.224 rows=1602789 loops=1)
                     ->  Sort  (cost=931578.59..935578.59 rows=1600000 width=250) (actual time=6738.546..7124.734 rows=1602789 loops=1)
                           Sort Key: partsupp.ps_partkey
                           Sort Method: external merge  Disk: 292720kB
                           ->  Hash Join  (cost=4708.46..383885.46 rows=1600000 width=250) (actual time=239.127..4899.268 rows=1603360 loops=1)
                                 Hash Cond: (partsupp.ps_suppkey = supplier.s_suppkey)
                                 ->  Seq Scan on partsupp  (cost=0.00..254386.00 rows=8000000 width=14) (actual time=0.021..2543.782 rows=8000000 loops=1)
                                 ->  Hash  (cost=3793.46..3793.46 rows=20000 width=244) (actual time=238.842..238.842 rows=20042 loops=1)
                                       Buckets: 16384  Batches: 2  Memory Usage: 2113kB
                                       ->  Hash Join  (cost=2.46..3793.46 rows=20000 width=244) (actual time=25.499..228.187 rows=20042 loops=1)
                                             Hash Cond: (supplier.s_nationkey = nation.n_nationkey)
                                             ->  Seq Scan on supplier  (cost=0.00..3216.00 rows=100000 width=144) (actual time=0.007..189.472 rows=100000 loops=1)
                                             ->  Hash  (cost=2.40..2.40 rows=5 width=108) (actual time=25.475..25.475 rows=5 loops=1)
                                                   Buckets: 1024  Batches: 1  Memory Usage: 9kB
                                                   ->  Hash Join  (cost=1.07..2.40 rows=5 width=108) (actual time=25.452..25.461 rows=5 loops=1)
                                                         Hash Cond: (nation.n_regionkey = region.r_regionkey)
                                                         ->  Seq Scan on nation  (cost=0.00..1.25 rows=25 width=112) (actual time=2.868..2.871 rows=25 loops=1)
                                                         ->  Hash  (cost=1.06..1.06 rows=1 width=4) (actual time=22.556..22.556 rows=1 loops=1)
                                                               Buckets: 1024  Batches: 1  Memory Usage: 9kB
                                                               ->  Seq Scan on region  (cost=0.00..1.06 rows=1 width=4) (actual time=22.545..22.546 rows=1 loops=1)
                                                                     Filter: (r_name = 'MIDDLE EAST'::bpchar)
                                                                     Rows Removed by Filter: 4
               SubPlan 1
                 ->  Aggregate  (cost=192.15..192.16 rows=1 width=32) (actual time=0.222..0.222 rows=1 loops=6520)
                       ->  Nested Loop  (cost=0.86..192.14 rows=4 width=6) (actual time=0.193..0.219 rows=2 loops=6520)
                             Join Filter: (nation_1.n_regionkey = region_1.r_regionkey)
                             Rows Removed by Join Filter: 2
                             ->  Seq Scan on region region_1  (cost=0.00..1.06 rows=1 width=4) (actual time=0.002..0.002 rows=1 loops=6520)
                                   Filter: (r_name = 'MIDDLE EAST'::bpchar)
                                   Rows Removed by Filter: 4
                             ->  Nested Loop  (cost=0.86..190.85 rows=18 width=10) (actual time=0.180..0.216 rows=4 loops=6520)
                                   ->  Nested Loop  (cost=0.72..188.08 rows=18 width=10) (actual time=0.178..0.210 rows=4 loops=6520)
                                         ->  Index Scan using partsupp_pkey on partsupp partsupp_1  (cost=0.43..38.50 rows=18 width=10) (actual time=0.174..0.184 rows=4 loops=6520)
                                               Index Cond: (part.p_partkey = ps_partkey)
                                         ->  Index Scan using supplier_pkey on supplier supplier_1  (cost=0.29..8.31 rows=1 width=8) (actual time=0.006..0.006 rows=1 loops=26080)
                                               Index Cond: (s_suppkey = partsupp_1.ps_suppkey)
                                   ->  Index Scan using nation_pkey on nation nation_1  (cost=0.14..0.16 rows=1 width=8) (actual time=0.001..0.001 rows=1 loops=26080)
                                         Index Cond: (n_nationkey = supplier_1.s_nationkey)
 Planning time: 270.001 ms
 Execution time: 9046.170 ms
(54 rows)



You are now connected to database "tpch" as user "tomas".
SET
                                                                                     QUERY PLAN                                                                                      
-------------------------------------------------------------------------------------------------------------------------------------------------------------------------------------
 Limit  (cost=2374513.30..2374513.31 rows=1 width=276) (actual time=9216.217..9216.419 rows=100 loops=1)
   ->  Sort  (cost=2374513.30..2374513.31 rows=1 width=276) (actual time=9216.215..9216.221 rows=100 loops=1)
         Sort Key: supplier.s_acctbal DESC, nation.n_name, supplier.s_name, part.p_partkey
         Sort Method: top-N heapsort  Memory: 71kB
         ->  Merge Join  (cost=932579.24..2374513.29 rows=1 width=276) (actual time=7377.826..9211.092 rows=4830 loops=1)
               Merge Cond: (part.p_partkey = partsupp.ps_partkey)
               Join Filter: (partsupp.ps_supplycost = (SubPlan 1))
               Rows Removed by Join Filter: 1690
               ->  Gather Merge  (cost=1000.45..87422.15 rows=8739 width=30) (actual time=32.151..61.859 rows=8148 loops=1)
                     Workers Planned: 2
                     Workers Launched: 2
                     ->  Parallel Index Scan using part_pkey on part  (cost=0.43..85413.43 rows=3641 width=30) (actual time=3.087..622.039 rows=2716 loops=3)
                           Filter: (((p_type)::text ~~ '%TIN'::text) AND (p_size = 38))
                           Rows Removed by Filter: 663951
               ->  Materialize  (cost=931578.59..939578.59 rows=1600000 width=250) (actual time=7328.935..7873.784 rows=1602789 loops=1)
                     ->  Sort  (cost=931578.59..935578.59 rows=1600000 width=250) (actual time=7328.925..7714.514 rows=1602789 loops=1)
                           Sort Key: partsupp.ps_partkey
                           Sort Method: external merge  Disk: 292720kB
                           ->  Hash Join  (cost=4708.46..383885.46 rows=1600000 width=250) (actual time=192.380..5524.262 rows=1603360 loops=1)
                                 Hash Cond: (partsupp.ps_suppkey = supplier.s_suppkey)
                                 ->  Seq Scan on partsupp  (cost=0.00..254386.00 rows=8000000 width=14) (actual time=0.014..3237.193 rows=8000000 loops=1)
                                 ->  Hash  (cost=3793.46..3793.46 rows=20000 width=244) (actual time=192.130..192.130 rows=20042 loops=1)
                                       Buckets: 16384  Batches: 2  Memory Usage: 2113kB
                                       ->  Hash Join  (cost=2.46..3793.46 rows=20000 width=244) (actual time=11.940..179.969 rows=20042 loops=1)
                                             Hash Cond: (supplier.s_nationkey = nation.n_nationkey)
                                             ->  Seq Scan on supplier  (cost=0.00..3216.00 rows=100000 width=144) (actual time=0.005..152.365 rows=100000 loops=1)
                                             ->  Hash  (cost=2.40..2.40 rows=5 width=108) (actual time=11.922..11.922 rows=5 loops=1)
                                                   Buckets: 1024  Batches: 1  Memory Usage: 9kB
                                                   ->  Hash Join  (cost=1.07..2.40 rows=5 width=108) (actual time=11.898..11.906 rows=5 loops=1)
                                                         Hash Cond: (nation.n_regionkey = region.r_regionkey)
                                                         ->  Seq Scan on nation  (cost=0.00..1.25 rows=25 width=112) (actual time=1.125..1.128 rows=25 loops=1)
                                                         ->  Hash  (cost=1.06..1.06 rows=1 width=4) (actual time=10.754..10.754 rows=1 loops=1)
                                                               Buckets: 1024  Batches: 1  Memory Usage: 9kB
                                                               ->  Seq Scan on region  (cost=0.00..1.06 rows=1 width=4) (actual time=10.741..10.743 rows=1 loops=1)
                                                                     Filter: (r_name = 'MIDDLE EAST'::bpchar)
                                                                     Rows Removed by Filter: 4
               SubPlan 1
                 ->  Aggregate  (cost=192.15..192.16 rows=1 width=32) (actual time=0.163..0.163 rows=1 loops=6520)
                       ->  Nested Loop  (cost=0.86..192.14 rows=4 width=6) (actual time=0.140..0.160 rows=2 loops=6520)
                             Join Filter: (nation_1.n_regionkey = region_1.r_regionkey)
                             Rows Removed by Join Filter: 2
                             ->  Seq Scan on region region_1  (cost=0.00..1.06 rows=1 width=4) (actual time=0.002..0.002 rows=1 loops=6520)
                                   Filter: (r_name = 'MIDDLE EAST'::bpchar)
                                   Rows Removed by Filter: 4
                             ->  Nested Loop  (cost=0.86..190.85 rows=18 width=10) (actual time=0.129..0.157 rows=4 loops=6520)
                                   ->  Nested Loop  (cost=0.72..188.08 rows=18 width=10) (actual time=0.127..0.152 rows=4 loops=6520)
                                         ->  Index Scan using partsupp_pkey on partsupp partsupp_1  (cost=0.43..38.50 rows=18 width=10) (actual time=0.122..0.127 rows=4 loops=6520)
                                               Index Cond: (part.p_partkey = ps_partkey)
                                         ->  Index Scan using supplier_pkey on supplier supplier_1  (cost=0.29..8.31 rows=1 width=8) (actual time=0.005..0.005 rows=1 loops=26080)
                                               Index Cond: (s_suppkey = partsupp_1.ps_suppkey)
                                   ->  Index Scan using nation_pkey on nation nation_1  (cost=0.14..0.16 rows=1 width=8) (actual time=0.001..0.001 rows=1 loops=26080)
                                         Index Cond: (n_nationkey = supplier_1.s_nationkey)
 Planning time: 185.129 ms
 Execution time: 9261.592 ms
(54 rows)



You are now connected to database "tpch" as user "tomas".
SET
                                                                                     QUERY PLAN                                                                                      
-------------------------------------------------------------------------------------------------------------------------------------------------------------------------------------
 Limit  (cost=2374513.30..2374513.31 rows=1 width=276) (actual time=9314.196..9314.374 rows=100 loops=1)
   ->  Sort  (cost=2374513.30..2374513.31 rows=1 width=276) (actual time=9314.194..9314.200 rows=100 loops=1)
         Sort Key: supplier.s_acctbal DESC, nation.n_name, supplier.s_name, part.p_partkey
         Sort Method: top-N heapsort  Memory: 71kB
         ->  Merge Join  (cost=932579.24..2374513.29 rows=1 width=276) (actual time=7502.849..9309.021 rows=4830 loops=1)
               Merge Cond: (part.p_partkey = partsupp.ps_partkey)
               Join Filter: (partsupp.ps_supplycost = (SubPlan 1))
               Rows Removed by Join Filter: 1690
               ->  Gather Merge  (cost=1000.45..87422.15 rows=8739 width=30) (actual time=31.734..39.209 rows=8148 loops=1)
                     Workers Planned: 2
                     Workers Launched: 2
                     ->  Parallel Index Scan using part_pkey on part  (cost=0.43..85413.43 rows=3641 width=30) (actual time=3.064..604.965 rows=2716 loops=3)
                           Filter: (((p_type)::text ~~ '%TIN'::text) AND (p_size = 38))
                           Rows Removed by Filter: 663951
               ->  Materialize  (cost=931578.59..939578.59 rows=1600000 width=250) (actual time=7456.260..7999.593 rows=1602789 loops=1)
                     ->  Sort  (cost=931578.59..935578.59 rows=1600000 width=250) (actual time=7456.252..7834.486 rows=1602789 loops=1)
                           Sort Key: partsupp.ps_partkey
                           Sort Method: external merge  Disk: 292720kB
                           ->  Hash Join  (cost=4708.46..383885.46 rows=1600000 width=250) (actual time=198.244..5605.683 rows=1603360 loops=1)
                                 Hash Cond: (partsupp.ps_suppkey = supplier.s_suppkey)
                                 ->  Seq Scan on partsupp  (cost=0.00..254386.00 rows=8000000 width=14) (actual time=0.011..3124.240 rows=8000000 loops=1)
                                 ->  Hash  (cost=3793.46..3793.46 rows=20000 width=244) (actual time=198.022..198.022 rows=20042 loops=1)
                                       Buckets: 16384  Batches: 2  Memory Usage: 2113kB
                                       ->  Hash Join  (cost=2.46..3793.46 rows=20000 width=244) (actual time=12.369..187.524 rows=20042 loops=1)
                                             Hash Cond: (supplier.s_nationkey = nation.n_nationkey)
                                             ->  Seq Scan on supplier  (cost=0.00..3216.00 rows=100000 width=144) (actual time=0.004..160.671 rows=100000 loops=1)
                                             ->  Hash  (cost=2.40..2.40 rows=5 width=108) (actual time=12.354..12.354 rows=5 loops=1)
                                                   Buckets: 1024  Batches: 1  Memory Usage: 9kB
                                                   ->  Hash Join  (cost=1.07..2.40 rows=5 width=108) (actual time=12.340..12.345 rows=5 loops=1)
                                                         Hash Cond: (nation.n_regionkey = region.r_regionkey)
                                                         ->  Seq Scan on nation  (cost=0.00..1.25 rows=25 width=112) (actual time=0.800..0.802 rows=25 loops=1)
                                                         ->  Hash  (cost=1.06..1.06 rows=1 width=4) (actual time=11.513..11.513 rows=1 loops=1)
                                                               Buckets: 1024  Batches: 1  Memory Usage: 9kB
                                                               ->  Seq Scan on region  (cost=0.00..1.06 rows=1 width=4) (actual time=11.505..11.506 rows=1 loops=1)
                                                                     Filter: (r_name = 'MIDDLE EAST'::bpchar)
                                                                     Rows Removed by Filter: 4
               SubPlan 1
                 ->  Aggregate  (cost=192.15..192.16 rows=1 width=32) (actual time=0.162..0.162 rows=1 loops=6520)
                       ->  Nested Loop  (cost=0.86..192.14 rows=4 width=6) (actual time=0.135..0.159 rows=2 loops=6520)
                             Join Filter: (nation_1.n_regionkey = region_1.r_regionkey)
                             Rows Removed by Join Filter: 2
                             ->  Seq Scan on region region_1  (cost=0.00..1.06 rows=1 width=4) (actual time=0.002..0.002 rows=1 loops=6520)
                                   Filter: (r_name = 'MIDDLE EAST'::bpchar)
                                   Rows Removed by Filter: 4
                             ->  Nested Loop  (cost=0.86..190.85 rows=18 width=10) (actual time=0.125..0.156 rows=4 loops=6520)
                                   ->  Nested Loop  (cost=0.72..188.08 rows=18 width=10) (actual time=0.123..0.151 rows=4 loops=6520)
                                         ->  Index Scan using partsupp_pkey on partsupp partsupp_1  (cost=0.43..38.50 rows=18 width=10) (actual time=0.118..0.129 rows=4 loops=6520)
                                               Index Cond: (part.p_partkey = ps_partkey)
                                         ->  Index Scan using supplier_pkey on supplier supplier_1  (cost=0.29..8.31 rows=1 width=8) (actual time=0.005..0.005 rows=1 loops=26080)
                                               Index Cond: (s_suppkey = partsupp_1.ps_suppkey)
                                   ->  Index Scan using nation_pkey on nation nation_1  (cost=0.14..0.16 rows=1 width=8) (actual time=0.001..0.001 rows=1 loops=26080)
                                         Index Cond: (n_nationkey = supplier_1.s_nationkey)
 Planning time: 235.238 ms
 Execution time: 9361.777 ms
(54 rows)



You are now connected to database "tpch" as user "tomas".
SET
                                                                                     QUERY PLAN                                                                                      
-------------------------------------------------------------------------------------------------------------------------------------------------------------------------------------
 Limit  (cost=2374513.30..2374513.31 rows=1 width=276) (actual time=9935.927..9936.117 rows=100 loops=1)
   ->  Sort  (cost=2374513.30..2374513.31 rows=1 width=276) (actual time=9935.925..9935.930 rows=100 loops=1)
         Sort Key: supplier.s_acctbal DESC, nation.n_name, supplier.s_name, part.p_partkey
         Sort Method: top-N heapsort  Memory: 71kB
         ->  Merge Join  (cost=932579.24..2374513.29 rows=1 width=276) (actual time=7427.821..9930.669 rows=4830 loops=1)
               Merge Cond: (part.p_partkey = partsupp.ps_partkey)
               Join Filter: (partsupp.ps_supplycost = (SubPlan 1))
               Rows Removed by Join Filter: 1690
               ->  Gather Merge  (cost=1000.45..87422.15 rows=8739 width=30) (actual time=42.247..65.681 rows=8148 loops=1)
                     Workers Planned: 2
                     Workers Launched: 2
                     ->  Parallel Index Scan using part_pkey on part  (cost=0.43..85413.43 rows=3641 width=30) (actual time=1.794..645.505 rows=2716 loops=3)
                           Filter: (((p_type)::text ~~ '%TIN'::text) AND (p_size = 38))
                           Rows Removed by Filter: 663951
               ->  Materialize  (cost=931578.59..939578.59 rows=1600000 width=250) (actual time=7366.590..7910.310 rows=1602789 loops=1)
                     ->  Sort  (cost=931578.59..935578.59 rows=1600000 width=250) (actual time=7366.581..7749.875 rows=1602789 loops=1)
                           Sort Key: partsupp.ps_partkey
                           Sort Method: external merge  Disk: 292720kB
                           ->  Hash Join  (cost=4708.46..383885.46 rows=1600000 width=250) (actual time=190.926..5542.027 rows=1603360 loops=1)
                                 Hash Cond: (partsupp.ps_suppkey = supplier.s_suppkey)
                                 ->  Seq Scan on partsupp  (cost=0.00..254386.00 rows=8000000 width=14) (actual time=0.011..3214.252 rows=8000000 loops=1)
                                 ->  Hash  (cost=3793.46..3793.46 rows=20000 width=244) (actual time=190.654..190.654 rows=20042 loops=1)
                                       Buckets: 16384  Batches: 2  Memory Usage: 2113kB
                                       ->  Hash Join  (cost=2.46..3793.46 rows=20000 width=244) (actual time=9.465..178.612 rows=20042 loops=1)
                                             Hash Cond: (supplier.s_nationkey = nation.n_nationkey)
                                             ->  Seq Scan on supplier  (cost=0.00..3216.00 rows=100000 width=144) (actual time=0.007..153.431 rows=100000 loops=1)
                                             ->  Hash  (cost=2.40..2.40 rows=5 width=108) (actual time=9.444..9.444 rows=5 loops=1)
                                                   Buckets: 1024  Batches: 1  Memory Usage: 9kB
                                                   ->  Hash Join  (cost=1.07..2.40 rows=5 width=108) (actual time=9.429..9.435 rows=5 loops=1)
                                                         Hash Cond: (nation.n_regionkey = region.r_regionkey)
                                                         ->  Seq Scan on nation  (cost=0.00..1.25 rows=25 width=112) (actual time=0.625..0.627 rows=25 loops=1)
                                                         ->  Hash  (cost=1.06..1.06 rows=1 width=4) (actual time=8.784..8.784 rows=1 loops=1)
                                                               Buckets: 1024  Batches: 1  Memory Usage: 9kB
                                                               ->  Seq Scan on region  (cost=0.00..1.06 rows=1 width=4) (actual time=8.777..8.778 rows=1 loops=1)
                                                                     Filter: (r_name = 'MIDDLE EAST'::bpchar)
                                                                     Rows Removed by Filter: 4
               SubPlan 1
                 ->  Aggregate  (cost=192.15..192.16 rows=1 width=32) (actual time=0.267..0.267 rows=1 loops=6520)
                       ->  Nested Loop  (cost=0.86..192.14 rows=4 width=6) (actual time=0.237..0.264 rows=2 loops=6520)
                             Join Filter: (nation_1.n_regionkey = region_1.r_regionkey)
                             Rows Removed by Join Filter: 2
                             ->  Seq Scan on region region_1  (cost=0.00..1.06 rows=1 width=4) (actual time=0.002..0.002 rows=1 loops=6520)
                                   Filter: (r_name = 'MIDDLE EAST'::bpchar)
                                   Rows Removed by Filter: 4
                             ->  Nested Loop  (cost=0.86..190.85 rows=18 width=10) (actual time=0.226..0.261 rows=4 loops=6520)
                                   ->  Nested Loop  (cost=0.72..188.08 rows=18 width=10) (actual time=0.225..0.256 rows=4 loops=6520)
                                         ->  Index Scan using partsupp_pkey on partsupp partsupp_1  (cost=0.43..38.50 rows=18 width=10) (actual time=0.220..0.231 rows=4 loops=6520)
                                               Index Cond: (part.p_partkey = ps_partkey)
                                         ->  Index Scan using supplier_pkey on supplier supplier_1  (cost=0.29..8.31 rows=1 width=8) (actual time=0.006..0.006 rows=1 loops=26080)
                                               Index Cond: (s_suppkey = partsupp_1.ps_suppkey)
                                   ->  Index Scan using nation_pkey on nation nation_1  (cost=0.14..0.16 rows=1 width=8) (actual time=0.001..0.001 rows=1 loops=26080)
                                         Index Cond: (n_nationkey = supplier_1.s_nationkey)
 Planning time: 203.431 ms
 Execution time: 9980.365 ms
(54 rows)



